^C:\USERS\CASGRANT\DESKTOP\CODEHUNTER\CODEHUNTER\X64\DEBUG\SOURCE.OBJ
C:\USERS\CASGRANT\DESKTOP\CODEHUNTER\X64\DEBUG\CODEHUNTER.ILK
C:\USERS\CASGRANT\DESKTOP\CODEHUNTER\X64\DEBUG\CODEHUNTER.EXE
C:\USERS\CASGRANT\DESKTOP\CODEHUNTER\X64\DEBUG\CODEHUNTER.PDB
